// Jest Snapshot v1, https://goo.gl/fbAQLP

exports[`composition of function to check prop types should render button in DOM tree 1`] = `
.c0 {
  color: red;
}

<button
  class="c0"
/>
`;

exports[`composition of function to check prop types should render with color green when is only primary 1`] = `
.c0 {
  color: red;
  color: green;
}

<button
  class="c0"
/>
`;

exports[`composition of function to check prop types should render with color red when is also secondary 1`] = `
.c0 {
  color: red;
}

<button
  class="c0"
/>
`;

exports[`real test with real React should render button in DOM tree 1`] = `
.c0 {
  color: red;
}

<button
  class="c0"
/>
`;

exports[`real test with real React should render button in DOM tree with primary prop 1`] = `
.c0 {
  color: red;
  color: green;
}

<button
  class="c0"
/>
`;

exports[`real test with typed button should render button in DOM tree 1`] = `
.c0 {
  color: red;
}

<button
  class="c0"
/>
`;

exports[`real test with typed button should render button in DOM tree with primary prop 1`] = `
.c0 {
  color: red;
  color: green;
}

<button
  class="c0"
/>
`;
